{
  "extends": [
    "tslint:recommended",
    "tslint-react",
    "tslint-eslint-rules",
    "tslint-config-airbnb"
  ],
  "rules": {
    "quotemark": [true, "single"],
    "object-literal-sort-keys": false,
    "no-shadowed-variable": true,
    "max-line-length": [true, 100],
    "variable-name": [true, "ban-keywords", "check-format", "allow-pascal-case"],
    "jsx-boolean-value": [true, "never"],
    "ter-indent": [false],
    "member-ordering": [true, {"order": "fields-first"}],
    "strict-boolean-expressions": false,
    "no-else-after-return": false,
    "no-unnecessary-else": true,
    "trailing-comma": [true, {
      "esSpecCompliant": true,
      "singleline": "never",
      "multiline": {
        "objects": "always",
        "arrays": "always",
        "functions": "never",
        "typeLiterals": "ignore"
      }
    }]
  },
  "jsRules": {
    "quotemark": [true, "single"],
    "object-literal-sort-keys": false,
    "no-shadowed-variable": true,
    "max-line-length": [true, 100]
  }
}
